simulation/qsim/look_door_01.msim.vcd
$comment
	File created using the following command:
		vcd file look_door_01.msim.vcd -direction
$end
$date
	Thu Apr 14 02:29:08 2022
$end
$version
	ModelSim Version 10.1d
$end
$timescale
	1ps
$end
$scope module look_door_01_vlg_vec_tst $end
$var reg 1 ! CLK $end
$var reg 1 " reset $end
$var reg 1 # sw0 $end
$var reg 1 $ sw1 $end
$var reg 1 % sw2 $end
$var reg 1 & sw3 $end
$var reg 1 ' sw4 $end
$var reg 1 ( sw5 $end
$var reg 1 ) sw6 $end
$var reg 1 * sw7 $end
$var reg 1 + sw8 $end
$var reg 1 , sw9 $end
$var wire 1 - A1 $end
$var wire 1 . A2 $end
$var wire 1 / A3 $end
$var wire 1 0 A4 $end
$var wire 1 1 sampler $end
$scope module i1 $end
$var wire 1 2 gnd $end
$var wire 1 3 vcc $end
$var wire 1 4 unknown $end
$var tri1 1 5 devclrn $end
$var tri1 1 6 devpor $end
$var tri1 1 7 devoe $end
$var wire 1 8 CLK~input_o $end
$var wire 1 9 A1~output_o $end
$var wire 1 : A2~output_o $end
$var wire 1 ; A3~output_o $end
$var wire 1 < A4~output_o $end
$var wire 1 = sw8~input_o $end
$var wire 1 > sw2~input_o $end
$var wire 1 ? sw6~input_o $end
$var wire 1 @ or_A1~0_combout $end
$var wire 1 A sw0~input_o $end
$var wire 1 B sw4~input_o $end
$var wire 1 C or_A1~combout $end
$var wire 1 D sw1~input_o $end
$var wire 1 E sw9~input_o $end
$var wire 1 F sw5~input_o $end
$var wire 1 G or_A2~combout $end
$var wire 1 H sw3~input_o $end
$var wire 1 I or_A3~0_combout $end
$var wire 1 J or_A3~combout $end
$var wire 1 K reset~input_o $end
$var wire 1 L sw7~input_o $end
$var wire 1 M reset_or~0_combout $end
$upscope $end
$upscope $end
$enddefinitions $end
#0
$dumpvars
0!
0"
0#
0$
0%
0&
0'
0(
0)
0*
0+
0,
0-
0.
0/
00
x1
02
13
x4
15
16
17
08
09
0:
0;
0<
0=
0>
0?
1@
0A
0B
0C
0D
0E
0F
0G
0H
0I
0J
0K
0L
0M
$end
#20000
1#
1A
01
1C
19
1-
#80000
0#
0A
11
0C
09
0-
#100000
1$
1D
01
1G
1:
1.
#160000
0$
0D
11
0G
0:
0.
#180000
1%
1>
01
0@
1G
1C
1:
19
1.
1-
#240000
0%
0>
11
1@
0G
0C
0:
09
0.
0-
#260000
1&
1H
01
1J
1;
1/
#340000
0&
0H
11
0J
0;
0/
#360000
1'
1B
01
1I
1C
19
1-
1J
1;
1/
#460000
0'
0B
11
0I
0C
09
0-
0J
0;
0/
#480000
1(
1F
01
1I
1G
1:
1.
1J
1;
1/
#580000
0(
0F
11
0I
0G
0:
0.
0J
0;
0/
#600000
1)
1?
01
1I
0@
1J
1G
1C
1;
1:
19
1/
1.
1-
#680000
0)
0?
11
0I
1@
0J
0G
0C
0;
0:
09
0/
0.
0-
#700000
1*
1L
01
1M
1<
10
#780000
0*
0L
11
0M
0<
00
#800000
1+
1=
01
1M
1C
1<
19
10
1-
#880000
0+
0=
11
0M
0C
0<
09
00
0-
#900000
1,
1E
01
1M
1G
1<
1:
10
1.
#980000
1"
0,
1K
0E
11
1I
0@
0G
0:
0.
1J
1G
1C
1;
1:
19
1/
1.
1-
